…
```r
totals <- svyby(~interaction(ab29,ab30), ~racehpr+ins+marit, 
      svytotal, design=chis, keep.names=FALSE) 
totals %>%
  as.tibble() %>%
  select(racehpr, ins, marit, yes_yes = `interaction(ab29, ab30)YES.YES`)
```

```
## # A tibble: 42 x 4
##                           racehpr    ins   marit yes_yes
##  *                         <fctr> <fctr>  <fctr>   <dbl>
##  1                         LATINO    YES MARRIED  360165
##  2               PACIFIC ISLANDER    YES MARRIED   14391
##  3 AMERICAN INDIAN/ALASKAN NATIVE    YES MARRIED   23454
##  4                          ASIAN    YES MARRIED  362872
##  5               AFRICAN AMERICAN    YES MARRIED  139975
##  6                          WHITE    YES MARRIED 1509984
##  7     OTHER SINGLE/MULTIPLE RACE    YES MARRIED   59286
##  8                         LATINO     NO MARRIED   30241
##  9               PACIFIC ISLANDER     NO MARRIED       0
## 10 AMERICAN INDIAN/ALASKAN NATIVE     NO MARRIED    3518
## # ... with 32 more rows
```
…
