…
1. Each observation in the Census is a certain demographic group, identified by the following characteristics:


```r
Census %>% as.tibble() %>% 
  dplyr::select(crace.female, cage.cat, cedu.cat, cage.edu.cat, cstate)

Census %>% as.tibble() %>% 
  dplyr::select(cregion, cp.relig.full, cp.kerry.full)
```

```
## # A tibble: 4,896 x 5
##    crace.female cage.cat cedu.cat cage.edu.cat cstate
##  *        <dbl>    <int>    <int>        <dbl>  <chr>
##  1            1        1        1            1     AK
##  2            1        2        1            5     AK
##  3            1        3        1            9     AK
##  4            1        4        1           13     AK
##  5            1        1        2            2     AK
##  6            1        2        2            6     AK
##  7            1        3        2           10     AK
##  8            1        4        2           14     AK
##  9            1        1        3            3     AK
## 10            1        2        3            7     AK
## # ... with 4,886 more rows
## # A tibble: 4,896 x 3
##    cregion cp.relig.full cp.kerry.full
##  *   <chr>         <dbl>         <dbl>
##  1    west      15.44313          35.5
##  2    west      15.44313          35.5
##  3    west      15.44313          35.5
##  4    west      15.44313          35.5
##  5    west      15.44313          35.5
##  6    west      15.44313          35.5
##  7    west      15.44313          35.5
##  8    west      15.44313          35.5
##  9    west      15.44313          35.5
## 10    west      15.44313          35.5
## # ... with 4,886 more rows
```

2. Each observation's demographics are noted as a percent of the state's population


```r
Census %>% as.tibble() %>% 
  dplyr::select(cpercent.state)
```

```
## # A tibble: 4,896 x 1
##    cpercent.state
##  *          <dbl>
##  1    0.022005467
##  2    0.017764583
##  3    0.019743662
##  4    0.016162474
##  5    0.045141835
##  6    0.064037323
##  7    0.047120914
##  8    0.009942512
##  9    0.033832815
## 10    0.057440393
## # ... with 4,886 more rows
```
…
