…
## Reproduce and Verify

Our goal is to estimate public opinion on gay marriage using this poll:


```r
library(arm)
library(tidyverse)
marriage.data <- foreign::read.dta('gay_marriage_megapoll.dta')
marriage.data %>% as.tibble()
```

```
## # A tibble: 6,548 x 27
##             poll poll_firm poll_year    id statenum     statename
##  *         <chr>     <chr>     <int> <int>    <int>        <fctr>
##  1 Gall2005Aug22      Gall      2005 80001       21      michigan
##  2 Gall2005Aug22      Gall      2005 80002       10       georgia
##  3 Gall2005Aug22      Gall      2005 80003       31      new york
##  4 Gall2005Aug22      Gall      2005 80004       28 new hampshire
##  5 Gall2005Aug22      Gall      2005 80005       42         texas
##  6 Gall2005Aug22      Gall      2005 80006       12      illinois
##  7 Gall2005Aug22      Gall      2005 80007       48     wisconsin
##  8 Gall2005Aug22      Gall      2005 80008       42         texas
##  9 Gall2005Aug22      Gall      2005 80009       41     tennessee
## 10 Gall2005Aug22      Gall      2005 80010       48     wisconsin
## # ... with 6,538 more rows, and 21 more variables: region_cat <int>,
## #   female <int>, race_wbh <int>, edu_cat <int>, age_cat <int>,
## #   age_cat6 <int>, age_edu_cat6 <int>, educ <int>, age <int>,
## #   democrat <int>, republican <int>, black <int>, hispanic <int>,
## #   weight <dbl>, yes_of_opinion_holders <int>, yes_of_all <int>,
## #   state <chr>, state_initnum <int>, region <chr>, no_of_all <dbl>,
## #   no_of_opinion_holders <dbl>
```

## Disaggregration 

The simplest way to gauge politic opinion is to disaggregrate the data. Break down the national survey into states and calculate the percentage saying `yes_of_all`. That calculation is very simple with `dplyr`:


```r
marriage.opinion <- marriage.data %>%
  group_by(statename) %>%
  summarise(support = mean(yes_of_all))
marriage.opinion
```

```
## # A tibble: 50 x 2
##               statename   support
##                  <fctr>     <dbl>
##  1              alabama 0.1284404
##  2              arizona 0.4296875
##  3             arkansas 0.1071429
##  4           california 0.4624809
##  5             colorado 0.3923077
##  6          connecticut 0.3623188
##  7             delaware 0.1764706
##  8 district of columbia 0.2857143
##  9              florida 0.3227666
## 10              georgia 0.2692308
## # ... with 40 more rows
```
…
White indicates majority support, with colors trending towards blue indicate increased support. Red colors are states below majority support. 

## Combining Data

Likewise, we may want to use other state level predictors from other sources:


```r
Statelevel <- foreign::read.dta("state_level_update.dta",convert.underscore = TRUE)
Statelevel <- Statelevel[order(Statelevel$sstate.initnum),]
Statelevel %>% as.tibble()
```

```
## # A tibble: 51 x 44
##    sstate.initnum sstate  sstatename ideology professional.index
##  *          <int>  <chr>       <chr>    <dbl>              <dbl>
##  1              1     AK      Alaska       NA              0.227
##  2              2     AL     Alabama    -23.1              0.071
##  3              3     AR    Arkansas    -18.3              0.106
##  4              4     AZ     Arizona    -18.2              0.232
##  5              5     CA  California     -6.2              0.626
##  6              6     CO    Colorado     -8.6              0.202
##  7              7     CT Connecticut     -4.4              0.190
##  8              8     DC        D.C.       NA                 NA
##  9              9     DE    Delaware    -12.2              0.148
## 10             10     FL     Florida    -17.1              0.223
## # ... with 41 more rows, and 39 more variables: professional.cat <int>,
## #   salary <dbl>, totalday <dbl>, staffper <dbl>, citizen.init <int>,
## #   year.adoption <int>, consitutional.init <int>, signature <int>,
## #   usage <int>, legislative.insulation <int>, p.evang <dbl>,
## #   p.mormon <dbl>, p.cath <dbl>, p.metroarea <dbl>, adjinc.cap <dbl>,
## #   pblack <dbl>, phisp <dbl>, p65over <dbl>, phighsch <dbl>,
## #   pbachelors <dbl>, demcontrol <int>, pdemocrat <dbl>,
## #   polarization <dbl>, divided <dbl>, kerry.04 <dbl>, gore.00 <dbl>,
## #   clinton.92 <dbl>, mondale.84 <dbl>, dukakis.88 <dbl>,
…
Finally, we need to load in the US census for poststratification:


```r
Census <- foreign::read.dta("poststratification 2000.dta",convert.underscore = TRUE)
Census <- Census[order(Census$cstate),]
Census$cstate.initnum <-  match(Census$cstate, Statelevel$sstate)
Census %>% as.tibble()
```

```
## # A tibble: 4,896 x 10
##    crace.WBH cage.cat cedu.cat cfemale cstate .freq cfreq.state
##  *     <int>    <int>    <int>   <int>  <chr> <int>       <dbl>
##  1         1        1        1       0     AK   467       21222
##  2         1        2        1       0     AK   377       21222
##  3         1        3        1       0     AK   419       21222
##  4         1        4        1       0     AK   343       21222
##  5         1        1        2       0     AK   958       21222
##  6         1        2        2       0     AK  1359       21222
##  7         1        3        2       0     AK  1000       21222
##  8         1        4        2       0     AK   211       21222
##  9         1        1        3       0     AK   718       21222
## 10         1        2        3       0     AK  1219       21222
## # ... with 4,886 more rows, and 3 more variables: cpercent.state <dbl>,
## #   cregion <chr>, cstate.initnum <int>
```
…
